Speaking Simple Features
…
## $o
## # A tibble: 1 x 3
##   name               st_sfc.st_linestring.cbind.xy_traverse..zz... object_ 
## * <fct>                                               <LINESTRING> <chr>   
## 1 epic trav… Z (0.161 0 114, 0.186 0.029 120, 0.202 0.037 122, 0.… VT3dVzR…
## 
## $b
## # A tibble: 1 x 1
##   object_   
##   <chr>     
## 1 VT3dVzRl9R
## 
## $bXv
## # A tibble: 35 x 2
##    order_ vertex_   
##     <int> <chr>     
##  1      1 UaSINpKQU0
##  2      2 iDESY39OgB
##  3      3 RDWXXpgx5c
##  4      4 kFnlEKKwJy
##  5      5 jGLiCmIBqA
##  6      6 0X9GAITbwY
##  7      7 1dhtuA6ujC
##  8      8 sxtd2thBRj
##  9      9 QRCtrQCOhf
## 10     10 CQ3q5tgoOW
## # ... with 25 more rows
## 
## $v
## # A tibble: 35 x 4
##       x_    y_    z_ vertex_   
##    <dbl> <dbl> <dbl> <chr>     
##  1 0.161 0       114 UaSINpKQU0
##  2 0.186 0.029   120 iDESY39OgB
##  3 0.202 0.037   122 RDWXXpgx5c
##  4 0.228 0.053   128 kFnlEKKwJy
##  5 0.252 0.053   130 jGLiCmIBqA
##  6 0.27  0.06    132 0X9GAITbwY
##  7 0.285 0.094   138 1dhtuA6ujC
##  8 0.292 0.121   142 sxtd2thBRj
##  9 0.309 0.155   146 QRCtrQCOhf
## 10 0.349 0.2     146 CQ3q5tgoOW
## # ... with 25 more rows
## 
## attr(,"class")
## [1] "map_table" "list"
