map_table. spbabel 0.4.0
…
$bXv
# A tibble: 50 × 3
      branch_ order_    vertex_
        <chr>  <int>      <chr>
1  bnsNDAR6ln      1 1Jp41pyVhm
2  bnsNDAR6ln      2 kP15IJQpc4
3  bnsNDAR6ln      3 jHh7ck68S2
4  bnsNDAR6ln      4 0TtggXxd9L
5  bnsNDAR6ln      5 1Jp41pyVhm
6  QENOfVV98y      1 11vam6r27a
7  QENOfVV98y      2 RnTnCuJpC4
8  QENOfVV98y      3 e9Lk4cKo4Y
9  QENOfVV98y      4 8cBN9t1H2F
10 QENOfVV98y      5 11vam6r27a
# ... with 40 more rows

$v
# A tibble: 27 × 3
      x_    y_    vertex_
   <dbl> <dbl>      <chr>
1      0     0 1Jp41pyVhm
2      0    19 kP15IJQpc4
3     46    19 jHh7ck68S2
4     46     0 0TtggXxd9L
5      7     6 11vam6r27a
6     13     6 RnTnCuJpC4
7     13    13 e9Lk4cKo4Y
8      7    13 8cBN9t1H2F
9     18     1 8Y3KV9SnsS
10    24     1 FzTNy7sdJn
# ... with 17 more rows
…
