Geometry in tables: the gris model. spbabel
…
In simplest form, the journey goes like this.

library(spbabel)
wrld_geom <- sptable(wrld_simpl)
wrld_data <- as.data.frame(wrld_simpl) ## make clear that we need two tables

(sp_rtrip <- sp(wrld_geom, attr_tab = wrld_data))

## class       : SpatialPolygonsDataFrame 
## features    : 246 
## extent      : -180, 180, -90, 83.57027  (xmin, xmax, ymin, ymax)
## coord. ref. : NA 
## variables   : 11
## # A tibble: 246 × 11
##      FIPS   ISO2   ISO3    UN                NAME   AREA  POP2005 REGION
##    <fctr> <fctr> <fctr> <int>              <fctr>  <int>    <dbl>  <int>
## 1      AC     AG    ATG    28 Antigua and Barbuda     44    83039     19
## 2      AG     DZ    DZA    12             Algeria 238174 32854159      2
## 3      AJ     AZ    AZE    31          Azerbaijan   8260  8352021    142
## 4      AL     AL    ALB     8             Albania   2740  3153731    150
## 5      AM     AM    ARM    51             Armenia   2820  3017661    142
## 6      AO     AO    AGO    24              Angola 124670 16095214      2
## 7      AQ     AS    ASM    16      American Samoa     20    64051      9
## 8      AR     AR    ARG    32           Argentina 273669 38747148     19
## 9      AS     AU    AUS    36           Australia 768230 20310208      9
## 10     BA     BH    BHR    48             Bahrain     71   724788    142
## # ... with 236 more rows, and 3 more variables: SUBREGION <int>,
## #   LON <dbl>, LAT <dbl>

The table ‘wrld_geom’ carried its map projection string with it as an ‘attribute’, but this is not reliable without creating methods for a special class. We can make sure it’s carried using a manual step.

wrld_geom <- sptable(wrld_simpl)
wrld_data <- as.data.frame(wrld_simpl) ## make clear that we need two tables
wrld_prj <- proj4string(wrld_simpl)
(sp_rtrip <- sp(wrld_geom, attr_tab = wrld_data, crs = wrld_prj))

## class       : SpatialPolygonsDataFrame 
## features    : 246 
## extent      : -180, 180, -90, 83.57027  (xmin, xmax, ymin, ymax)
## coord. ref. : +proj=longlat +ellps=WGS84 +datum=WGS84 +no_defs +towgs84=0,0,0 
## variables   : 11
## # A tibble: 246 × 11
##      FIPS   ISO2   ISO3    UN                NAME   AREA  POP2005 REGION
##    <fctr> <fctr> <fctr> <int>              <fctr>  <int>    <dbl>  <int>
## 1      AC     AG    ATG    28 Antigua and Barbuda     44    83039     19
## 2      AG     DZ    DZA    12             Algeria 238174 32854159      2
## 3      AJ     AZ    AZE    31          Azerbaijan   8260  8352021    142
## 4      AL     AL    ALB     8             Albania   2740  3153731    150
## 5      AM     AM    ARM    51             Armenia   2820  3017661    142
## 6      AO     AO    AGO    24              Angola 124670 16095214      2
## 7      AQ     AS    ASM    16      American Samoa     20    64051      9
## 8      AR     AR    ARG    32           Argentina 273669 38747148     19
## 9      AS     AU    AUS    36           Australia 768230 20310208      9
## 10     BA     BH    BHR    48             Bahrain     71   724788    142
## # ... with 236 more rows, and 3 more variables: SUBREGION <int>,
## #   LON <dbl>, LAT <dbl>
…
wrld_geom$object_ <- wrld_geom$branch_
sp(wrld_geom, crs = wrld_prj)

## class       : SpatialPolygonsDataFrame 
## features    : 97 
## extent      : 112.9511, 159.1019, -54.74973, -10.05167  (xmin, xmax, ymin, ymax)
## coord. ref. : +proj=longlat +ellps=WGS84 +datum=WGS84 +no_defs +towgs84=0,0,0 
## variables   : 1
## # A tibble: 97 × 1
##    rownumber_
##         <int>
## 1           1
## 2           2
## 3           3
## 4           4
## 5           5
## 6           6
## 7           7
## 8           8
## 9           9
## 10         10
## # ... with 87 more rows
…
