Speaking Simple Features • spbabel
…
## $o
## # A tibble: 1 x 3
##   name               st_sfc.st_linestring.cbind.xy_traverse..zz... object_ 
## * <fct>                                               <LINESTRING> <chr>   
## 1 epic trav… Z (0.161 0 114, 0.186 0.029 120, 0.202 0.037 122, 0.… sXfyiFG…
## 
## $b
## # A tibble: 1 x 1
##   object_   
##   <chr>     
## 1 sXfyiFGuLN
## 
## $bXv
## # A tibble: 35 x 2
##    order_ vertex_   
##     <int> <chr>     
##  1      1 tLZD8gnx3C
##  2      2 HvG2hNY5YY
##  3      3 B1NONdE71e
##  4      4 JjXFewwlrp
##  5      5 l4tr46d5lW
##  6      6 NShOk1CYWk
##  7      7 8pLtCoe5US
##  8      8 lKu5HR8eTp
##  9      9 q5tPlAqVPg
## 10     10 c1elmENWDF
## # ... with 25 more rows
## 
## $v
## # A tibble: 35 x 4
##       x_    y_    z_ vertex_   
##    <dbl> <dbl> <dbl> <chr>     
##  1 0.161 0       114 tLZD8gnx3C
##  2 0.186 0.029   120 HvG2hNY5YY
##  3 0.202 0.037   122 B1NONdE71e
##  4 0.228 0.053   128 JjXFewwlrp
##  5 0.252 0.053   130 l4tr46d5lW
##  6 0.27  0.06    132 NShOk1CYWk
##  7 0.285 0.094   138 8pLtCoe5US
##  8 0.292 0.121   142 lKu5HR8eTp
##  9 0.309 0.155   146 q5tPlAqVPg
## 10 0.349 0.2     146 c1elmENWDF
## # ... with 25 more rows
## 
## attr(,"class")
## [1] "map_table" "list"
…
